Rajd Dakar nigdy nie przebiegal drogami i bezdrozami:,Kenii,Argentyny,Senegalu ,Egiptu
W Polsce nie ma autostrady: ,A5,A1,A6,A8
Migacz to:,kierunkowskaz,klakson,pedal gazu,kluczyk samochodowy
Wojskowe Honkery produkowano w Polsce w:,Lublinie,Szczecinie,Starachowicach,Sanoku
Ktory termin wiaze sie z deszczem:,Aquaplaning,Podsterownosc,Drifting,Rallycross
Ktora firma jako pierwsza wprowadzila trzypunktowe pasy bezpieczenstwa:,Volvo,Mercedes-Benz,Jaguar,Saab
Chinski producent samochodow to:,BYD,AvtoVAZ,Tata,Rimac
Firma Brembo produkuje:,Hamulce,Silniki,Opony,Audio
Klepa to samica:,Losia,Jelenia,Sarny,Konia
Stolica Bulgarii jest:,Sofia,Bukareszt,Warna,Tirana
